…
## Checking average of a variable(Advanced)

<br>

Let's group the data by multiple variables

```{r}
sum.df <- data %>%
  group_by(continent, year) %>%
  summarise(life_avg = mean(lifeExp),
            gdp_avg = mean(gdpPercap),
            .groups = "keep") %>% #keeping the group variables
  ungroup()
sum.df
"# A tibble: 60 × 4
   continent  year life_avg gdp_avg
   <fct>     <int>    <dbl>   <dbl>
 1 Africa     1952     39.1   1253.
 2 Africa     1957     41.3   1385.
 3 Africa     1962     43.3   1598.
 4 Africa     1967     45.3   2050.
 5 Africa     1972     47.5   2340.
 6 Africa     1977     49.6   2586.
 7 Africa     1982     51.6   2482.
 8 Africa     1987     53.3   2283.
 9 Africa     1992     53.6   2282.
10 Africa     1997     53.6   2379.
# … with 50 more rows
# ℹ Use `print(n = ...)` to see more rows"
```

## Sorting the data set

<br>

Let's check which continent has the highest average life expectancy in each year by descending order

```{r}
sum.df %>%
  arrange(-year, -life_avg)
"# A tibble: 60 × 4
   continent  year life_avg gdp_avg
   <fct>     <int>    <dbl>   <dbl>
 1 Oceania    2007     80.7  29810.
 2 Europe     2007     77.6  25054.
 3 Americas   2007     73.6  11003.
 4 Asia       2007     70.7  12473.
 5 Africa     2007     54.8   3089.
 6 Oceania    2002     79.7  26939.
 7 Europe     2002     76.7  21712.
 8 Americas   2002     72.4   9288.
 9 Asia       2002     69.2  10174.
10 Africa     2002     53.3   2599.
# … with 50 more rows
# ℹ Use `print(n = ...)` to see more rows"
```
…
